TidyTuesday
…
<img src="index_files/figure-html/food-type-emissions-1.svg" height="600px" />

---

count: false
.pull-left-reveal[

```r
*food_consumption
```
]
.pull-right-reveal[

```
## # A tibble: 1,430 x 4
##    country  food_category     consumption co2_emmission
##    <chr>    <chr>                   <dbl>         <dbl>
##  1 Argenti… Pork                    10.5          37.2 
##  2 Argenti… Poultry                 38.7          41.5 
##  3 Argenti… Beef                    55.5        1712   
##  4 Argenti… Lamb & Goat              1.56         54.6 
##  5 Argenti… Fish                     4.36          6.96
##  6 Argenti… Eggs                    11.4          10.5 
##  7 Argenti… Milk - inc. chee…      195.          278.  
##  8 Argenti… Wheat and Wheat …      103.           19.7 
##  9 Argenti… Rice                     8.77         11.2 
## 10 Argenti… Soybeans                 0             0   
## # … with 1,420 more rows
```
]
---
count: false
.pull-left-reveal[

```r
food_consumption %>%  
* group_by(food_category)
```
]
.pull-right-reveal[

```
## # A tibble: 1,430 x 4
## # Groups:   food_category [11]
##    country  food_category     consumption co2_emmission
##    <chr>    <chr>                   <dbl>         <dbl>
##  1 Argenti… Pork                    10.5          37.2 
##  2 Argenti… Poultry                 38.7          41.5 
##  3 Argenti… Beef                    55.5        1712   
##  4 Argenti… Lamb & Goat              1.56         54.6 
##  5 Argenti… Fish                     4.36          6.96
##  6 Argenti… Eggs                    11.4          10.5 
##  7 Argenti… Milk - inc. chee…      195.          278.  
##  8 Argenti… Wheat and Wheat …      103.           19.7 
##  9 Argenti… Rice                     8.77         11.2 
## 10 Argenti… Soybeans                 0             0   
## # … with 1,420 more rows
```
…
